MasterControl EDA
…
progress_rate_by(df, acct_primary_site_function)

# A tibble: 24 × 3
   acct_primary_site_function           n progressed_rate
   <chr>                            <int>           <dbl>
 1 Food and beverage                  197           0.604
 2 Nutraceutical manufacturing        240           0.492
 3 Not Enough Info Found             1038           0.491
 4 Specialty Chemical Manufacturing   351           0.487
 5 Cosmetics manufacturing            120           0.4  
 6 Secondary packaging                110           0.364
 7 Non-manufacturing organization    1887           0.355
 8 Drug discovery & development       220           0.314
 9 Radiopharmaceuticals               112           0.312
10 Lab Instruments                    238           0.294
# ℹ 14 more rows
…
